# 3ds Max Wavefront OBJ Exporter v0.97b - (c)2007 guruware
# File Created: 01.01.2021 19:59:17

#
# object Box001
#

v  -0.500000 0.000000 0.500000
v  -0.500000 0.000000 -0.500000
v  0.500000 0.000000 -0.500000
v  0.500000 0.000000 0.500000
v  0.500000 1.000000 0.500000
v  -0.500000 1.000000 0.500000
v  0.500000 1.000000 -0.500000
v  -0.500000 1.000000 -0.500000
# 8 vertices

vn 0.000000 -1.000000 -0.000000
vn 0.000000 0.000000 1.000000
vn 1.000000 0.000000 -0.000000
vn 0.000000 0.000000 -1.000000
vn -1.000000 0.000000 -0.000000
# 5 vertex normals

vt 1.000000 0.000000 0.000000
vt 1.000000 1.000000 0.000000
vt 0.000000 1.000000 0.000000
vt 0.000000 0.000000 0.000000
# 4 texture coords

g Box001
f 1/1/1 2/2/1 3/3/1 
f 3/3/1 4/4/1 1/1/1 
f 1/4/2 4/1/2 5/2/2 
f 5/2/2 6/3/2 1/4/2 
f 4/4/3 3/1/3 7/2/3 
f 7/2/3 5/3/3 4/4/3 
f 3/4/4 2/1/4 8/2/4 
f 8/2/4 7/3/4 3/4/4 
f 2/4/5 1/1/5 6/2/5 
f 6/2/5 8/3/5 2/4/5 
# 10 faces

